%YAML 1.1
%TAG !u! tag:unity3d.com,2011:
--- !u!114 &2387295645017900840
MonoBehaviour:
  m_ObjectHideFlags: 0
  m_CorrespondingSourceObject: {fileID: 0}
  m_PrefabInstance: {fileID: 0}
  m_PrefabAsset: {fileID: 0}
  m_GameObject: {fileID: 3098994308115273436}
  m_Enabled: 1
  m_EditorHideFlags: 0
  m_Script: {fileID: 11500000, guid: b67e356be8f5fc1469153a91bd40c407, type: 3}
  m_Name: 
  m_EditorClassIdentifier: 
  currentState: 0
  charRend: {fileID: 5412044644580131381}
  happyMat: {fileID: 2100000, guid: 5574cc032173578459d440a637ac581a, type: 2}
  panicMat: {fileID: 2100000, guid: f09f5b63fc179874bb78ad5c55542c89, type: 2}
  sadMat: {fileID: 2100000, guid: b4dc4d65bcb4a1949ba76896dd881e77, type: 2}
  madMat: {fileID: 2100000, guid: 67abee5e416c3114cb74ab97f7f33fb3, type: 2}
  revengeMat: {fileID: 2100000, guid: f948fc59409dca54795ad7a43e11b34b, type: 2}
--- !u!1001 &2864499604142304141
PrefabInstance:
  m_ObjectHideFlags: 0
  serializedVersion: 2
  m_Modification:
    m_TransformParent: {fileID: 0}
    m_Modifications:
    - target: {fileID: -8679921383154817045, guid: 442bddd6f4892ef459bafe40f5393875, type: 3}
      propertyPath: m_RootOrder
      value: 0
      objectReference: {fileID: 0}
    - target: {fileID: -8679921383154817045, guid: 442bddd6f4892ef459bafe40f5393875, type: 3}
      propertyPath: m_LocalPosition.x
      value: 0
      objectReference: {fileID: 0}
    - target: {fileID: -8679921383154817045, guid: 442bddd6f4892ef459bafe40f5393875, type: 3}
      propertyPath: m_LocalPosition.y
      value: 0
      objectReference: {fileID: 0}
    - target: {fileID: -8679921383154817045, guid: 442bddd6f4892ef459bafe40f5393875, type: 3}
      propertyPath: m_LocalPosition.z
      value: 0
      objectReference: {fileID: 0}
    - target: {fileID: -8679921383154817045, guid: 442bddd6f4892ef459bafe40f5393875, type: 3}
      propertyPath: m_LocalRotation.w
      value: 1
      objectReference: {fileID: 0}
    - target: {fileID: -8679921383154817045, guid: 442bddd6f4892ef459bafe40f5393875, type: 3}
      propertyPath: m_LocalRotation.x
      value: 0
      objectReference: {fileID: 0}
    - target: {fileID: -8679921383154817045, guid: 442bddd6f4892ef459bafe40f5393875, type: 3}
      propertyPath: m_LocalRotation.y
      value: 0
      objectReference: {fileID: 0}
    - target: {fileID: -8679921383154817045, guid: 442bddd6f4892ef459bafe40f5393875, type: 3}
      propertyPath: m_LocalRotation.z
      value: 0
      objectReference: {fileID: 0}
    - target: {fileID: -8679921383154817045, guid: 442bddd6f4892ef459bafe40f5393875, type: 3}
      propertyPath: m_LocalEulerAnglesHint.x
      value: 0
      objectReference: {fileID: 0}
    - target: {fileID: -8679921383154817045, guid: 442bddd6f4892ef459bafe40f5393875, type: 3}
      propertyPath: m_LocalEulerAnglesHint.y
      value: 0
      objectReference: {fileID: 0}
    - target: {fileID: -8679921383154817045, guid: 442bddd6f4892ef459bafe40f5393875, type: 3}
      propertyPath: m_LocalEulerAnglesHint.z
      value: 0
      objectReference: {fileID: 0}
    - target: {fileID: -1379281431588034120, guid: 442bddd6f4892ef459bafe40f5393875, type: 3}
      propertyPath: m_Materials.Array.data[0]
      value: 
      objectReference: {fileID: 2100000, guid: 67abee5e416c3114cb74ab97f7f33fb3, type: 2}
    - target: {fileID: 919132149155446097, guid: 442bddd6f4892ef459bafe40f5393875, type: 3}
      propertyPath: m_Name
      value: Char1 (1)
      objectReference: {fileID: 0}
    - target: {fileID: 5866666021909216657, guid: 442bddd6f4892ef459bafe40f5393875, type: 3}
      propertyPath: m_Controller
      value: 
      objectReference: {fileID: 9100000, guid: 9650c0133b94f634da8aef8622759d0e, type: 2}
    - target: {fileID: 5866666021909216657, guid: 442bddd6f4892ef459bafe40f5393875, type: 3}
      propertyPath: m_ApplyRootMotion
      value: 0
      objectReference: {fileID: 0}
    m_RemovedComponents: []
  m_SourcePrefab: {fileID: 100100000, guid: 442bddd6f4892ef459bafe40f5393875, type: 3}
--- !u!1 &3098994308115273436 stripped
GameObject:
  m_CorrespondingSourceObject: {fileID: 919132149155446097, guid: 442bddd6f4892ef459bafe40f5393875, type: 3}
  m_PrefabInstance: {fileID: 2864499604142304141}
  m_PrefabAsset: {fileID: 0}
--- !u!137 &5412044644580131381 stripped
SkinnedMeshRenderer:
  m_CorrespondingSourceObject: {fileID: -1379281431588034120, guid: 442bddd6f4892ef459bafe40f5393875, type: 3}
  m_PrefabInstance: {fileID: 2864499604142304141}
  m_PrefabAsset: {fileID: 0}
