%YAML 1.1
%TAG !u! tag:unity3d.com,2011:
--- !u!1001 &8916536437955103419
PrefabInstance:
  m_ObjectHideFlags: 0
  serializedVersion: 2
  m_Modification:
    m_TransformParent: {fileID: 0}
    m_Modifications:
    - target: {fileID: 823273717749703764, guid: cdcbf95e3f2fb4545a2ef5f26491249a, type: 3}
      propertyPath: m_RootOrder
      value: 0
      objectReference: {fileID: 0}
    - target: {fileID: 823273717749703764, guid: cdcbf95e3f2fb4545a2ef5f26491249a, type: 3}
      propertyPath: m_LocalPosition.x
      value: 0
      objectReference: {fileID: 0}
    - target: {fileID: 823273717749703764, guid: cdcbf95e3f2fb4545a2ef5f26491249a, type: 3}
      propertyPath: m_LocalPosition.y
      value: 0
      objectReference: {fileID: 0}
    - target: {fileID: 823273717749703764, guid: cdcbf95e3f2fb4545a2ef5f26491249a, type: 3}
      propertyPath: m_LocalPosition.z
      value: 0
      objectReference: {fileID: 0}
    - target: {fileID: 823273717749703764, guid: cdcbf95e3f2fb4545a2ef5f26491249a, type: 3}
      propertyPath: m_LocalRotation.w
      value: 1
      objectReference: {fileID: 0}
    - target: {fileID: 823273717749703764, guid: cdcbf95e3f2fb4545a2ef5f26491249a, type: 3}
      propertyPath: m_LocalRotation.x
      value: -0
      objectReference: {fileID: 0}
    - target: {fileID: 823273717749703764, guid: cdcbf95e3f2fb4545a2ef5f26491249a, type: 3}
      propertyPath: m_LocalRotation.y
      value: -0
      objectReference: {fileID: 0}
    - target: {fileID: 823273717749703764, guid: cdcbf95e3f2fb4545a2ef5f26491249a, type: 3}
      propertyPath: m_LocalRotation.z
      value: -0
      objectReference: {fileID: 0}
    - target: {fileID: 823273717749703764, guid: cdcbf95e3f2fb4545a2ef5f26491249a, type: 3}
      propertyPath: m_LocalEulerAnglesHint.x
      value: 0
      objectReference: {fileID: 0}
    - target: {fileID: 823273717749703764, guid: cdcbf95e3f2fb4545a2ef5f26491249a, type: 3}
      propertyPath: m_LocalEulerAnglesHint.y
      value: 0
      objectReference: {fileID: 0}
    - target: {fileID: 823273717749703764, guid: cdcbf95e3f2fb4545a2ef5f26491249a, type: 3}
      propertyPath: m_LocalEulerAnglesHint.z
      value: 0
      objectReference: {fileID: 0}
    - target: {fileID: 823273717749703766, guid: cdcbf95e3f2fb4545a2ef5f26491249a, type: 3}
      propertyPath: m_Materials.Array.data[0]
      value: 
      objectReference: {fileID: 2100000, guid: 5a2edf999c1817844a7800b0301586d1, type: 2}
    - target: {fileID: 823273717749703784, guid: cdcbf95e3f2fb4545a2ef5f26491249a, type: 3}
      propertyPath: m_Name
      value: Light3 Variant
      objectReference: {fileID: 0}
    - target: {fileID: 823273717749703784, guid: cdcbf95e3f2fb4545a2ef5f26491249a, type: 3}
      propertyPath: m_IsActive
      value: 1
      objectReference: {fileID: 0}
    - target: {fileID: 2738941975606956740, guid: cdcbf95e3f2fb4545a2ef5f26491249a, type: 3}
      propertyPath: m_Color.b
      value: 0.81995875
      objectReference: {fileID: 0}
    - target: {fileID: 2738941975606956740, guid: cdcbf95e3f2fb4545a2ef5f26491249a, type: 3}
      propertyPath: m_Color.g
      value: 0.02352941
      objectReference: {fileID: 0}
    - target: {fileID: 2738941975606956740, guid: cdcbf95e3f2fb4545a2ef5f26491249a, type: 3}
      propertyPath: m_Color.r
      value: 1
      objectReference: {fileID: 0}
    m_RemovedComponents: []
  m_SourcePrefab: {fileID: 100100000, guid: cdcbf95e3f2fb4545a2ef5f26491249a, type: 3}
